{
    "background-color": "#050014",
    "badge-color": "#FFFFFF",
    "bold-color": "#FFFFFF",
    "comment": "",
    "cursor-background-color": "#000000",
    "cursor-foreground-color": "#FFFFFF",
    "foreground-color": "#EEEEEC",
    "highlight-background-color": "#000000",
    "highlight-foreground-color": "#FFFFFF",
    "name": "conf",
    "palette": [
        "#230046",
        "#7D1625",
        "#337E6F",
        "#F3370B",
        "#393EF0",
        "#5A3F7F",
        "#58777F",
        "#736E7D",
        "#372D46",
        "#E05167",
        "#52E0C4",
        "#E0C386",
        "#8E87E0",
        "#A776E0",
        "#9AD4E0",
        "#8C91FA"
    ],
    "use-badge-color": true,
    "use-bold-color": false,
    "use-cursor-color": false,
    "use-highlight-color": false,
    "use-theme-colors": false
}